appdirs==1.4.3
apturl>=0.5.2
attrs==19.3.0
beautifulsoup4==4.4.1
blinker==1.3
Brlapi==0.6.4
cached-property==1.5.1
certifi==2019.11.28
chardet==3.0.4
checkbox-support==0.22
command-not-found==0.3
configparser==3.5.0
cryptography==1.2.3
defer==1.0.6
defusedxml==0.6.0
Django==2.0.2
django-extensions==2.0.0
ecdsa==0.13.3
Fabric3==1.12.post1
fabtools-python==0.19.5
feedparser==5.1.3
future==0.18.0
guacamole==0.9.2
html5lib==0.999
httplib2==0.9.1
idna==2.9
isodate==0.6.0
Jinja2==2.8
language-selector==0.1
louis==2.6.4
lxml==4.5.0
Mako==1.0.3
MarkupSafe==0.23
mysqlclient==1.3.12
oauthlib==1.0.3
onboard==1.2.0
padme==1.1.1
paramiko==1.18.5
pexpect==4.0.1
Pillow==5.0.0
plainbox==0.25
ptyprocess==0.5
pyasn1==0.1.9
pycrypto==2.6.1
pycups==1.9.73
pycurl==7.43.0
pygobject==3.20.0
PyJWT==1.3.0
pyparsing==2.0.3
python-apt==1.1.0b1+ubuntu0.16.4.8
python-dateutil==2.8.0
python-debian==0.1.27
python-systemd==231
pytz==2019.3
pyxdg==0.25
reportlab==3.3.0
requests==2.23.0
requests-toolbelt==0.9.1
sessioninstaller==0.0.0
six==1.14.0
system-service==0.3
typing==3.6.4
ubuntu-drivers-common==0.0.0
ufw==0.35
unattended-upgrades==0.1
unity-scope-calculator==0.1
unity-scope-chromiumbookmarks==0.1
unity-scope-colourlovers==0.1
unity-scope-devhelp==0.1
unity-scope-firefoxbookmarks==0.1
unity-scope-gdrive==0.7
unity-scope-manpages==0.1
unity-scope-openclipart==0.1
unity-scope-texdoc==0.1
unity-scope-tomboy==0.1
unity-scope-virtualbox==0.1
unity-scope-yelp==0.1
unity-scope-zotero==0.1
urllib3==1.25.8
usb-creator==0.3.0
xdiagnose==3.8.4.1
xkit==0.0.0
XlsxWriter==0.7.3
xmltodict==0.12.0
zeep==3.4.0
